<svg width="24" height="24" viewBox="0 0 24 24" fill="none" xmlns="http://www.w3.org/2000/svg">
<path fill-rule="evenodd" clip-rule="evenodd" d="M3.34203 8.44909C3 9.19275 3 10.0388 3 11.7308V17.0152C3 19.3651 3 20.54 3.73001 21.27C4.4199 21.9599 5.50715 21.9978 7.60791 21.9999V15.7691C7.60791 14.5286 8.61357 13.5229 9.85411 13.5229H13.5927C14.8333 13.5229 15.8389 14.5286 15.8389 15.7691V21.9999C17.9397 21.9978 19.0269 21.9599 19.7168 21.27C20.4468 20.54 20.4468 19.3651 20.4468 17.0152V11.7308C20.4468 10.0388 20.4468 9.19275 20.1048 8.44909C19.7628 7.70544 19.1204 7.15485 17.8357 6.05369L16.5895 4.98552C14.2674 2.99517 13.1064 2 11.7234 2C10.3404 2 9.17938 2.99517 6.85731 4.98552L5.61111 6.05369C4.32641 7.15485 3.68407 7.70544 3.34203 8.44909ZM13.8389 22V15.7691C13.8389 15.6332 13.7287 15.5229 13.5927 15.5229H9.85411C9.71814 15.5229 9.60791 15.6332 9.60791 15.7691V22H13.8389Z" fill="white"/>
</svg>
