<svg width="24" height="24" viewBox="0 0 24 24" fill="none" xmlns="http://www.w3.org/2000/svg">
<path d="M5 12.7597C5 11.4019 5 10.723 5.27446 10.1263C5.54892 9.52956 6.06437 9.08775 7.09525 8.20413L8.09525 7.34699C9.95857 5.74986 10.8902 4.95129 12 4.95129C13.1098 4.95129 14.0414 5.74986 15.9047 7.34699L16.9047 8.20413C17.9356 9.08775 18.4511 9.52956 18.7255 10.1263C19 10.723 19 11.4019 19 12.7597V17.0001C19 18.8857 19 19.8285 18.4142 20.4143C17.8284 21.0001 16.8856 21.0001 15 21.0001H9C7.11438 21.0001 6.17157 21.0001 5.58579 20.4143C5 19.8285 5 18.8857 5 17.0001V12.7597Z" stroke="#050505" stroke-width="1.5"/>
<path d="M14.5 21V16C14.5 15.4477 14.0523 15 13.5 15H10.5C9.94772 15 9.5 15.4477 9.5 16V21" stroke="#050505" stroke-width="1.5" stroke-linecap="round" stroke-linejoin="round"/>
</svg>
