<svg width="24" height="24" viewBox="0 0 24 24" fill="none" xmlns="http://www.w3.org/2000/svg">
<path d="M17.261 21.8541H7.99351C7.70018 21.8541 7.44351 21.6708 7.34268 21.4049C7.24185 21.1299 7.32435 20.8274 7.54435 20.6441C7.76435 20.4608 7.96602 20.2224 8.11268 19.9658C8.40602 19.4983 8.55268 18.9666 8.55268 18.4258C8.55268 16.7849 7.21435 15.4466 5.57351 15.4466C4.89518 15.4466 4.25351 15.6758 3.71268 16.1066C3.50185 16.2716 3.22685 16.2991 2.98851 16.1891C2.75018 16.0791 2.60352 15.8316 2.60352 15.5658V11.56C2.60352 9.27746 4.45518 7.42578 6.73768 7.42578H17.261C19.5435 7.42578 21.3952 9.27746 21.3952 11.56V12.88C21.3952 13.2558 21.0835 13.5675 20.7077 13.5675H18.856C18.5352 13.5675 18.2419 13.6866 18.031 13.9066L18.0218 13.9158C17.7652 14.1633 17.646 14.5024 17.6735 14.8508C17.7285 15.4558 18.306 15.9416 18.966 15.9416H20.7077C21.0835 15.9416 21.3952 16.2533 21.3952 16.6291V17.7199C21.3952 20.0024 19.5435 21.8541 17.261 21.8541ZM9.41435 20.4791H17.261C18.7827 20.4791 20.0202 19.2416 20.0202 17.7199V17.3166H18.966C17.5818 17.3166 16.4085 16.2899 16.2985 14.9699C16.2252 14.2183 16.5002 13.4758 17.0502 12.935C17.5269 12.4491 18.1685 12.1833 18.856 12.1833H20.0202V11.5508C20.0202 10.0291 18.7827 8.79161 17.261 8.79161H6.73768C5.21602 8.79161 3.97852 10.0291 3.97852 11.5508V14.3741C4.49185 14.1725 5.03268 14.0624 5.58268 14.0624C7.98435 14.0624 9.93685 16.0149 9.93685 18.4166C9.93685 19.1408 9.75352 19.8558 9.41435 20.4791Z" fill="#050505"/>
<path d="M3.29102 13.0635C2.91518 13.0635 2.60352 12.7518 2.60352 12.376V8.18689C2.60352 6.82105 3.46518 5.5835 4.73935 5.09767L12.0177 2.34767C12.7602 2.0635 13.6035 2.16438 14.2543 2.62271C14.9143 3.08105 15.2993 3.82354 15.2993 4.62104V8.10436C15.2993 8.48019 14.9877 8.79186 14.6118 8.79186C14.236 8.79186 13.9243 8.48019 13.9243 8.10436V4.62104C13.9243 4.27271 13.7593 3.95186 13.466 3.75019C13.1727 3.54853 12.8243 3.50269 12.4943 3.63102L5.21601 6.38102C4.47351 6.66519 3.96935 7.38939 3.96935 8.18689V12.376C3.97851 12.761 3.66685 13.0635 3.29102 13.0635Z" fill="#050505"/>
<path d="M18.9663 17.3164C17.5821 17.3164 16.4088 16.2898 16.2988 14.9698C16.2254 14.2089 16.5004 13.4664 17.0504 12.9256C17.5179 12.4489 18.1596 12.1831 18.8471 12.1831H20.7538C21.6613 12.2106 22.3579 12.9256 22.3579 13.8056V15.694C22.3579 16.574 21.6613 17.2889 20.7813 17.3164H18.9663ZM20.7354 13.5581H18.8563C18.5354 13.5581 18.2421 13.6773 18.0313 13.8973C17.7654 14.1539 17.6371 14.5022 17.6738 14.8506C17.7288 15.4556 18.3063 15.9414 18.9663 15.9414H20.7629C20.8821 15.9414 20.9921 15.8315 20.9921 15.694V13.8056C20.9921 13.6681 20.8821 13.5673 20.7354 13.5581Z" fill="#050505"/>
<path d="M13.8327 12.6875H7.41602C7.04018 12.6875 6.72852 12.3758 6.72852 12C6.72852 11.6242 7.04018 11.3125 7.41602 11.3125H13.8327C14.2085 11.3125 14.5202 11.6242 14.5202 12C14.5202 12.3758 14.2085 12.6875 13.8327 12.6875Z" fill="#050505"/>
<path d="M5.58268 22.7708C4.06102 22.7708 2.63102 21.9642 1.86102 20.6533C1.44852 19.9933 1.22852 19.2142 1.22852 18.4167C1.22852 17.0783 1.82435 15.8408 2.86018 15.0158C3.63018 14.4016 4.60185 14.0625 5.58268 14.0625C7.98435 14.0625 9.93685 16.015 9.93685 18.4167C9.93685 19.2142 9.71685 19.9933 9.30435 20.6625C9.08435 21.0475 8.78185 21.3958 8.43352 21.6892C7.67268 22.3858 6.65518 22.7708 5.58268 22.7708ZM5.58268 15.4375C4.90435 15.4375 4.26268 15.6666 3.72185 16.0975C3.01602 16.6566 2.60352 17.5092 2.60352 18.4167C2.60352 18.9575 2.75018 19.4892 3.03435 19.9475C3.57518 20.8642 4.52852 21.3958 5.58268 21.3958C6.30685 21.3958 7.00351 21.13 7.53518 20.6533C7.77351 20.4517 7.97518 20.2133 8.12185 19.9567C8.41518 19.4892 8.56185 18.9575 8.56185 18.4167C8.56185 16.7758 7.22352 15.4375 5.58268 15.4375Z" fill="#050505"/>
<path d="M6.94982 19.0859H4.20898C3.83315 19.0859 3.52148 18.7743 3.52148 18.3984C3.52148 18.0226 3.83315 17.7109 4.20898 17.7109H6.94982C7.32565 17.7109 7.63732 18.0226 7.63732 18.3984C7.63732 18.7743 7.33482 19.0859 6.94982 19.0859Z" fill="#050505"/>
<path d="M5.58398 20.4884C5.20815 20.4884 4.89648 20.1767 4.89648 19.8009V17.0601C4.89648 16.6842 5.20815 16.3726 5.58398 16.3726C5.95982 16.3726 6.27148 16.6842 6.27148 17.0601V19.8009C6.27148 20.1859 5.95982 20.4884 5.58398 20.4884Z" fill="#050505"/>
</svg>
